<?xml version="1.0" encoding="utf-8"?>
<!-- Generator: Adobe Illustrator 23.0.3, SVG Export Plug-In . SVG Version: 6.00 Build 0)  -->
<svg version="1.1" id="Layer_1" xmlns="http://www.w3.org/2000/svg" xmlns:xlink="http://www.w3.org/1999/xlink" x="0px" y="0px"
	 viewBox="0 0 1210.18 347.58" style="enable-background:new 0 0 1210.18 347.58;" xml:space="preserve">
<style type="text/css">
	.st0{fill:url(#SVGID_1_);}
	.st1{fill:url(#SVGID_2_);}
	.st2{fill:url(#SVGID_3_);}
	.st3{fill:url(#SVGID_4_);}
	.st4{fill:url(#SVGID_5_);}
</style>
<g>
	<linearGradient id="SVGID_1_" gradientUnits="userSpaceOnUse" x1="73.0029" y1="637.9746" x2="157.3631" y2="-367.8583">
		<stop  offset="0" style="stop-color:#CA3975"/>
		<stop  offset="1" style="stop-color:#EB5E3E"/>
	</linearGradient>
	<path class="st0" d="M5.34,0h236.24c2.95,0,5.34,2.39,5.34,5.34v62.09c0,2.95-2.39,5.34-5.34,5.34h-81.73v272.14
		c0,1.47-1.2,2.67-2.67,2.67h-25.82c-24.46,0-44.28-19.83-44.28-44.28V72.77H5.34C2.39,72.77,0,70.38,0,67.43V5.34
		C0,2.39,2.39,0,5.34,0z"/>
	<linearGradient id="SVGID_2_" gradientUnits="userSpaceOnUse" x1="271.365" y1="656.234" x2="356.1439" y2="-354.5904">
		<stop  offset="0" style="stop-color:#CA3975"/>
		<stop  offset="1" style="stop-color:#EB5E3E"/>
	</linearGradient>
	<path class="st1" d="M424.27,225.98c0-67.17-54.48-121.63-121.66-121.6c-67.22,0.04-121.53,54.37-121.53,121.6
		c0,67.16,54.44,121.59,121.6,121.59c22.64,0,43.83-6.2,61.98-16.97c9.38,10.42,22.97,16.97,38.09,16.97h18.85
		c1.47,0,2.67-1.2,2.67-2.67V226.13C424.27,226.08,424.27,226.03,424.27,225.98z M302.68,274.82c-26.97,0-48.83-21.87-48.83-48.83
		s21.86-48.83,48.83-48.83c26.97,0,48.83,21.86,48.83,48.83S329.64,274.82,302.68,274.82z"/>
	<linearGradient id="SVGID_3_" gradientUnits="userSpaceOnUse" x1="791.6464" y1="699.8705" x2="876.4252" y2="-310.9539">
		<stop  offset="0" style="stop-color:#CA3975"/>
		<stop  offset="1" style="stop-color:#EB5E3E"/>
	</linearGradient>
	<path class="st2" d="M948.21,225.98c0-67.17-54.48-121.63-121.66-121.6c-67.22,0.04-121.53,54.37-121.53,121.6
		c0,67.16,54.44,121.59,121.6,121.59c22.64,0,43.83-6.2,61.98-16.97c9.38,10.42,22.97,16.97,38.09,16.97h18.85
		c1.47,0,2.67-1.2,2.67-2.67V226.13C948.21,226.08,948.21,226.03,948.21,225.98z M826.62,274.82c-26.97,0-48.83-21.87-48.83-48.83
		s21.86-48.83,48.83-48.83c26.97,0,48.83,21.86,48.83,48.83S853.58,274.82,826.62,274.82z"/>
	<linearGradient id="SVGID_4_" gradientUnits="userSpaceOnUse" x1="1051.7864" y1="721.6887" x2="1136.5652" y2="-289.1357">
		<stop  offset="0" style="stop-color:#CA3975"/>
		<stop  offset="1" style="stop-color:#EB5E3E"/>
	</linearGradient>
	<path class="st3" d="M1210.18,225.98c0-67.17-54.48-121.63-121.66-121.6c-67.22,0.04-121.53,54.37-121.53,121.6
		c0,67.16,54.44,121.59,121.6,121.59c22.64,0,43.83-6.2,61.98-16.97c9.38,10.42,22.97,16.97,38.09,16.97h18.85
		c1.47,0,2.67-1.2,2.67-2.67V226.13C1210.18,226.08,1210.18,226.03,1210.18,225.98z M1088.59,274.82
		c-26.97,0-48.83-21.87-48.83-48.83s21.86-48.83,48.83-48.83c26.97,0,48.83,21.86,48.83,48.83S1115.55,274.82,1088.59,274.82z"/>
	<linearGradient id="SVGID_5_" gradientUnits="userSpaceOnUse" x1="531.5474" y1="677.6574" x2="616.2247" y2="-331.9571">
		<stop  offset="0" style="stop-color:#CA3975"/>
		<stop  offset="1" style="stop-color:#EB5E3E"/>
	</linearGradient>
	<path class="st4" d="M680.9,0h-62.09c-2.95,0-5.34,2.39-5.34,5.34V114.6c-14.95-6.56-31.46-10.21-48.83-10.21
		c-67.16,0-122.36,55.86-121.59,123.02c0.76,66.5,54.91,120.17,121.59,120.17c22.64,0,43.83-6.2,61.99-16.97
		c9.38,10.42,22.97,16.97,38.09,16.97h18.85c1.47,0,2.67-1.2,2.67-2.67V5.34C686.24,2.39,683.85,0,680.9,0z M564.65,274.82
		c-27.61,0-49.86-22.92-48.79-50.76c0.97-25.3,21.59-45.9,46.89-46.86c27.81-1.05,50.68,21.15,50.73,48.7v0.18
		C613.43,253,591.59,274.82,564.65,274.82z"/>
</g>
</svg>
